{
 "custom_fields": [
  {
   "_assign": null, 
   "_comments": null, 
   "_liked_by": null, 
   "_user_tags": null, 
   "allow_on_submit": 0, 
   "bold": 0, 
   "collapsible": 0, 
   "collapsible_depends_on": null, 
   "columns": 1, 
   "creation": "2018-01-17 11:30:22.782156", 
   "default": null, 
   "depends_on": null, 
   "description": null, 
   "docstatus": 0, 
   "dt": "Sales Invoice Item One", 
   "fieldname": "descuento", 
   "fieldtype": "Check", 
   "hidden": 0, 
   "idx": 23, 
   "ignore_user_permissions": 0, 
   "ignore_xss_filter": 0, 
   "in_global_search": 0, 
   "in_list_view": 1, 
   "in_standard_filter": 0, 
   "insert_after": "caja", 
   "label": "Descuento", 
   "modified": "2018-01-17 11:30:22.782156", 
   "modified_by": "Administrator", 
   "name": "Sales Invoice Item One-descuento", 
   "no_copy": 0, 
   "options": null, 
   "owner": "Administrator", 
   "parent": null, 
   "parentfield": null, 
   "parenttype": null, 
   "permlevel": 0, 
   "precision": "", 
   "print_hide": 0, 
   "print_hide_if_no_value": 0, 
   "print_width": null, 
   "read_only": 0, 
   "report_hide": 0, 
   "reqd": 0, 
   "search_index": 0, 
   "unique": 0, 
   "width": null
  }, 
  {
   "_assign": null, 
   "_comments": null, 
   "_liked_by": null, 
   "_user_tags": null, 
   "allow_on_submit": 0, 
   "bold": 0, 
   "collapsible": 0, 
   "collapsible_depends_on": null, 
   "columns": 1, 
   "creation": "2018-01-16 17:36:37.223314", 
   "default": null, 
   "depends_on": null, 
   "description": null, 
   "docstatus": 0, 
   "dt": "Sales Invoice Item One", 
   "fieldname": "caja", 
   "fieldtype": "Check", 
   "hidden": 0, 
   "idx": 22, 
   "ignore_user_permissions": 0, 
   "ignore_xss_filter": 0, 
   "in_global_search": 0, 
   "in_list_view": 1, 
   "in_standard_filter": 0, 
   "insert_after": "subtotal_imp", 
   "label": "Caja", 
   "modified": "2018-01-16 17:36:37.223314", 
   "modified_by": "Administrator", 
   "name": "Sales Invoice Item One-caja", 
   "no_copy": 0, 
   "options": null, 
   "owner": "Administrator", 
   "parent": null, 
   "parentfield": null, 
   "parenttype": null, 
   "permlevel": 0, 
   "precision": "", 
   "print_hide": 0, 
   "print_hide_if_no_value": 0, 
   "print_width": null, 
   "read_only": 0, 
   "report_hide": 0, 
   "reqd": 0, 
   "search_index": 0, 
   "unique": 0, 
   "width": null
  }
 ], 
 "custom_perms": [], 
 "doctype": "Sales Invoice Item One", 
 "property_setters": [
  {
   "_assign": null, 
   "_comments": null, 
   "_liked_by": null, 
   "_user_tags": null, 
   "creation": "2018-01-17 11:30:42.238217", 
   "default_value": null, 
   "doc_type": "Sales Invoice Item One", 
   "docstatus": 0, 
   "doctype_or_field": "DocType", 
   "field_name": null, 
   "idx": 0, 
   "modified": "2018-01-17 11:30:42.238217", 
   "modified_by": "Administrator", 
   "name": "Sales Invoice Item One-read_only_onload", 
   "owner": "Administrator", 
   "parent": null, 
   "parentfield": null, 
   "parenttype": null, 
   "property": "read_only_onload", 
   "property_type": "Check", 
   "value": null
  }, 
  {
   "_assign": null, 
   "_comments": null, 
   "_liked_by": null, 
   "_user_tags": null, 
   "creation": "2018-01-17 11:30:22.718663", 
   "default_value": null, 
   "doc_type": "Sales Invoice Item One", 
   "docstatus": 0, 
   "doctype_or_field": "DocField", 
   "field_name": "unit_price_out_dcto", 
   "idx": 0, 
   "modified": "2018-01-17 11:30:22.718663", 
   "modified_by": "Administrator", 
   "name": "Sales Invoice Item One-unit_price_out_dcto-in_list_view", 
   "owner": "Administrator", 
   "parent": null, 
   "parentfield": null, 
   "parenttype": null, 
   "property": "in_list_view", 
   "property_type": "Check", 
   "value": "0"
  }, 
  {
   "_assign": null, 
   "_comments": null, 
   "_liked_by": null, 
   "_user_tags": null, 
   "creation": "2018-01-16 17:39:18.468717", 
   "default_value": null, 
   "doc_type": "Sales Invoice Item One", 
   "docstatus": 0, 
   "doctype_or_field": "DocField", 
   "field_name": "unit_price_out_dcto", 
   "idx": 0, 
   "modified": "2018-01-16 17:39:18.468717", 
   "modified_by": "Administrator", 
   "name": "Sales Invoice Item One-unit_price_out_dcto-columns", 
   "owner": "Administrator", 
   "parent": null, 
   "parentfield": null, 
   "parenttype": null, 
   "property": "columns", 
   "property_type": "Int", 
   "value": "2"
  }, 
  {
   "_assign": null, 
   "_comments": null, 
   "_liked_by": null, 
   "_user_tags": null, 
   "creation": "2018-01-16 17:39:18.460025", 
   "default_value": null, 
   "doc_type": "Sales Invoice Item One", 
   "docstatus": 0, 
   "doctype_or_field": "DocField", 
   "field_name": "item_code", 
   "idx": 0, 
   "modified": "2018-01-16 17:39:18.460025", 
   "modified_by": "Administrator", 
   "name": "Sales Invoice Item One-item_code-columns", 
   "owner": "Administrator", 
   "parent": null, 
   "parentfield": null, 
   "parenttype": null, 
   "property": "columns", 
   "property_type": "Int", 
   "value": "1"
  }, 
  {
   "_assign": null, 
   "_comments": null, 
   "_liked_by": null, 
   "_user_tags": null, 
   "creation": "2018-01-16 17:38:25.494044", 
   "default_value": null, 
   "doc_type": "Sales Invoice Item One", 
   "docstatus": 0, 
   "doctype_or_field": "DocField", 
   "field_name": "subtotal", 
   "idx": 0, 
   "modified": "2018-01-16 17:38:25.494044", 
   "modified_by": "Administrator", 
   "name": "Sales Invoice Item One-subtotal-columns", 
   "owner": "Administrator", 
   "parent": null, 
   "parentfield": null, 
   "parenttype": null, 
   "property": "columns", 
   "property_type": "Int", 
   "value": "2"
  }, 
  {
   "_assign": null, 
   "_comments": null, 
   "_liked_by": null, 
   "_user_tags": null, 
   "creation": "2018-01-16 17:38:25.490489", 
   "default_value": null, 
   "doc_type": "Sales Invoice Item One", 
   "docstatus": 0, 
   "doctype_or_field": "DocField", 
   "field_name": "subtotal", 
   "idx": 0, 
   "modified": "2018-01-16 17:38:25.490489", 
   "modified_by": "Administrator", 
   "name": "Sales Invoice Item One-subtotal-width", 
   "owner": "Administrator", 
   "parent": null, 
   "parentfield": null, 
   "parenttype": null, 
   "property": "width", 
   "property_type": "Data", 
   "value": ""
  }, 
  {
   "_assign": null, 
   "_comments": null, 
   "_liked_by": null, 
   "_user_tags": null, 
   "creation": "2018-01-16 16:17:57.941088", 
   "default_value": null, 
   "doc_type": "Sales Invoice Item One", 
   "docstatus": 0, 
   "doctype_or_field": "DocField", 
   "field_name": "description", 
   "idx": 0, 
   "modified": "2018-01-16 16:17:57.941088", 
   "modified_by": "Administrator", 
   "name": "Sales Invoice Item One-description-reqd", 
   "owner": "Administrator", 
   "parent": null, 
   "parentfield": null, 
   "parenttype": null, 
   "property": "reqd", 
   "property_type": "Check", 
   "value": "0"
  }
 ], 
 "sync_on_migrate": 1
}